Change Physical Footprint: Designator=* Old Footprint=CONN_MicroSD New Footprint=CONN_MicroSD
Change Physical Footprint: Designator=*1 Old Footprint=JUMPER_SMD_0R_0603 New Footprint=JUMPER_SMD_0R_0603
Change Physical Footprint: Designator=*1 Old Footprint=LQFP-100 New Footprint=LQFP-100
Change Physical Footprint: Designator=*2 Old Footprint=JUMPER_SMD_0R_0603 New Footprint=JUMPER_SMD_0R_0603
Change Physical Footprint: Designator=*3 Old Footprint=JUMPER_SMD_0R_0603 New Footprint=JUMPER_SMD_0R_0603
Change Physical Footprint: Designator=*4 Old Footprint=JUMPER_SMD_0R_0603 New Footprint=JUMPER_SMD_0R_0603
Change Physical Footprint: Designator=1 Old Footprint=SWITCH_6X6 New Footprint=SWITCH_6X6
Change Physical Footprint: Designator=ADCL Old Footprint=CONN_MATE-N-LOCK_R/A_2x2M New Footprint=CONN_MATE-N-LOCK_R/A_2x2M
Change Physical Footprint: Designator=ADCR Old Footprint=CONN_MATE-N-LOCK_R/A_2x2M New Footprint=CONN_MATE-N-LOCK_R/A_2x2M
Change Physical Footprint: Designator=BRAKE Old Footprint=CONN_MATE-N-LOCK_R/A_2x2M New Footprint=CONN_MATE-N-LOCK_R/A_2x2M
Change Physical Footprint: Designator=C1 Old Footprint=TCAP_2917 New Footprint=TCAP_2917
Change Physical Footprint: Designator=C2 Old Footprint=CAP_0805 New Footprint=CAP_0805
Change Physical Footprint: Designator=C3 Old Footprint=CAP_0805 New Footprint=CAP_0805
Change Physical Footprint: Designator=C4 Old Footprint=CAP_0603 New Footprint=CAP_0603
Change Physical Footprint: Designator=C5 Old Footprint=CAP_0805 New Footprint=CAP_0805
Change Physical Footprint: Designator=C6 Old Footprint=CAP_0603 New Footprint=CAP_0603
Change Physical Footprint: Designator=C7 Old Footprint=CAP_0603 New Footprint=CAP_0603
Change Physical Footprint: Designator=C8 Old Footprint=CAP_0603 New Footprint=CAP_0603
Change Physical Footprint: Designator=C9 Old Footprint=CAP_0603 New Footprint=CAP_0603
Change Physical Footprint: Designator=C10 Old Footprint=CAP_0603 New Footprint=CAP_0603
Change Physical Footprint: Designator=C11 Old Footprint=CAP_0603 New Footprint=CAP_0603
Change Physical Footprint: Designator=C12 Old Footprint=CAP_0603 New Footprint=CAP_0603
Change Physical Footprint: Designator=C13 Old Footprint=CAP_0603 New Footprint=CAP_0603
Change Physical Footprint: Designator=C14 Old Footprint=CAP_0603 New Footprint=CAP_0603
Change Physical Footprint: Designator=C15 Old Footprint=CAP_0603 New Footprint=CAP_0603
Change Physical Footprint: Designator=C16 Old Footprint=CAP_0603 New Footprint=CAP_0603
Change Physical Footprint: Designator=C17 Old Footprint=CAP_0603 New Footprint=CAP_0603
Change Physical Footprint: Designator=C18 Old Footprint=CAP_0603 New Footprint=CAP_0603
Change Physical Footprint: Designator=C19 Old Footprint=CAP_0603 New Footprint=CAP_0603
Change Physical Footprint: Designator=C20 Old Footprint=CAP_0603 New Footprint=CAP_0603
Change Physical Footprint: Designator=C21 Old Footprint=CAP_0603 New Footprint=CAP_0603
Change Physical Footprint: Designator=C22 Old Footprint=CAP_0603 New Footprint=CAP_0603
Change Physical Footprint: Designator=C23 Old Footprint=CAP_0603 New Footprint=CAP_0603
Change Physical Footprint: Designator=C24 Old Footprint=CAP_0603 New Footprint=CAP_0603
Change Physical Footprint: Designator=C25 Old Footprint=CAP_0805 New Footprint=CAP_0805
Change Physical Footprint: Designator=C26 Old Footprint=CAP_0603 New Footprint=CAP_0603
Change Physical Footprint: Designator=C27 Old Footprint=CAP_0603 New Footprint=CAP_0603
Change Physical Footprint: Designator=C28 Old Footprint=CAP_0603 New Footprint=CAP_0603
Change Physical Footprint: Designator=C29 Old Footprint=CAP_0603 New Footprint=CAP_0603
Change Physical Footprint: Designator=C30 Old Footprint=CAP_0603 New Footprint=CAP_0603
Change Physical Footprint: Designator=C31 Old Footprint=CAP_ELEC_radial_5.5 New Footprint=CAP_ELEC_radial_5.5
Change Physical Footprint: Designator=C32 Old Footprint=CAP_0603 New Footprint=CAP_0603
Change Physical Footprint: Designator=C33 Old Footprint=CAP_1210 New Footprint=CAP_1210
Change Physical Footprint: Designator=C34 Old Footprint=CAP_0603 New Footprint=CAP_0603
Change Physical Footprint: Designator=C35 Old Footprint=CAP_0603 New Footprint=CAP_0603
Change Physical Footprint: Designator=C36 Old Footprint=CAP_0603 New Footprint=CAP_0603
Change Physical Footprint: Designator=C37 Old Footprint=CAP_0603 New Footprint=CAP_0603
Change Physical Footprint: Designator=C38 Old Footprint=CAP_1210 New Footprint=CAP_1210
Change Physical Footprint: Designator=C42 Old Footprint=CAP_0603 New Footprint=CAP_0603
Change Physical Footprint: Designator=C43 Old Footprint=CAP_ELEC_radial_5.5 New Footprint=CAP_ELEC_radial_5.5
Change Physical Footprint: Designator=C44 Old Footprint=CAP_0603 New Footprint=CAP_0603
Change Physical Footprint: Designator=C45 Old Footprint=CAP_1206 New Footprint=CAP_1206
Change Physical Footprint: Designator=C46 Old Footprint=CAP_0603 New Footprint=CAP_0603
Change Physical Footprint: Designator=C47 Old Footprint=CAP_0603 New Footprint=CAP_0603
Change Physical Footprint: Designator=C48 Old Footprint=CAP_1210 New Footprint=CAP_1210
Change Physical Footprint: Designator=C49 Old Footprint=CAP_1210 New Footprint=CAP_1210
Change Physical Footprint: Designator=C52 Old Footprint=CAP_0805 New Footprint=CAP_0805
Change Physical Footprint: Designator=C53 Old Footprint=CAP_0603 New Footprint=CAP_0603
Change Physical Footprint: Designator=C54 Old Footprint=CAP_0603 New Footprint=CAP_0603
Change Physical Footprint: Designator=CAN1 Old Footprint=CONN_MATE-N-LOCK_R/A_2x2M New Footprint=CONN_MATE-N-LOCK_R/A_2x2M
Change Physical Footprint: Designator=CAN2 Old Footprint=CONN_MATE-N-LOCK_R/A_2x2M New Footprint=CONN_MATE-N-LOCK_R/A_2x2M
Change Physical Footprint: Designator=CR1 Old Footprint=4SOJ New Footprint=4SOJ
Change Physical Footprint: Designator=CR2 Old Footprint=CRYSTAL_11.4x4.7 New Footprint=CRYSTAL_11.4x4.7
Change Physical Footprint: Designator=D1 Old Footprint=SS14L New Footprint=SS14L
Change Physical Footprint: Designator=DH1 Old Footprint=M4_Distancer_Hole New Footprint=M4_Distancer_Hole
Change Physical Footprint: Designator=DH2 Old Footprint=M4_Distancer_Hole New Footprint=M4_Distancer_Hole
Change Physical Footprint: Designator=DH3 Old Footprint=M4_Distancer_Hole New Footprint=M4_Distancer_Hole
Change Physical Footprint: Designator=DH4 Old Footprint=M4_Distancer_Hole New Footprint=M4_Distancer_Hole
Change Physical Footprint: Designator=F1 Old Footprint=FUSE_0603 New Footprint=FUSE_0603
Change Physical Footprint: Designator=F2 Old Footprint=FUSE_0603 New Footprint=FUSE_0603
Change Physical Footprint: Designator=F3 Old Footprint=FUSE_0603 New Footprint=FUSE_0603
Change Physical Footprint: Designator=F4 Old Footprint=FUSE_0603 New Footprint=FUSE_0603
Change Physical Footprint: Designator=F5 Old Footprint=FUSE_0603 New Footprint=FUSE_0603
Change Physical Footprint: Designator=F6 Old Footprint=FUSE_0603 New Footprint=FUSE_0603
Change Physical Footprint: Designator=F7 Old Footprint=FUSE_0603 New Footprint=FUSE_0603
Change Physical Footprint: Designator=F8 Old Footprint=FUSE_0603 New Footprint=FUSE_0603
Change Physical Footprint: Designator=FB1 Old Footprint=FER_0603 New Footprint=FER_0603
Change Physical Footprint: Designator=FER1 Old Footprint=FER_1206 New Footprint=FER_1206
Change Physical Footprint: Designator=FER2 Old Footprint=FER_0603 New Footprint=FER_0603
Change Physical Footprint: Designator=FER3 Old Footprint=FER_0603 New Footprint=FER_0603
Change Physical Footprint: Designator=FER4 Old Footprint=FER_0603 New Footprint=FER_0603
Change Physical Footprint: Designator=FER5 Old Footprint=FER_0603 New Footprint=FER_0603
Change Physical Footprint: Designator=FT1 Old Footprint=SSOP16-0.635-5X4MM New Footprint=SSOP16-0.635-5X4MM
Change Physical Footprint: Designator=I1 Old Footprint=IND_7.2x6.65 New Footprint=IND_7.2x6.65
Change Physical Footprint: Designator=I2 Old Footprint=IND_7.2x6.65 New Footprint=IND_7.2x6.65
Change Physical Footprint: Designator=IC1 Old Footprint=SOT-23-6 New Footprint=SOT-23-6
Change Physical Footprint: Designator=IC2 Old Footprint=8-SOIC New Footprint=8-SOIC
Change Physical Footprint: Designator=IC3 Old Footprint=8-SOIC New Footprint=8-SOIC
Change Physical Footprint: Designator=IC4 Old Footprint=SOT-23-6 New Footprint=SOT-23-6
Change Physical Footprint: Designator=IC5 Old Footprint=14-LGA New Footprint=14-LGA
Change Physical Footprint: Designator=LED1 Old Footprint=LED_0603 New Footprint=LED_0603
Change Physical Footprint: Designator=LED2 Old Footprint=LED_0603 New Footprint=LED_0603
Change Physical Footprint: Designator=LED3 Old Footprint=LED_0603 New Footprint=LED_0603
Change Physical Footprint: Designator=LED4 Old Footprint=LED_0603 New Footprint=LED_0603
Change Physical Footprint: Designator=LED5 Old Footprint=LED_0603 New Footprint=LED_0603
Change Physical Footprint: Designator=LED_3V3_PRT Old Footprint=LED_0603 New Footprint=LED_0603
Change Physical Footprint: Designator=LED_5V_PRT Old Footprint=LED_0603 New Footprint=LED_0603
Change Physical Footprint: Designator=LED_12V_PRT Old Footprint=LED_0603 New Footprint=LED_0603
Change Physical Footprint: Designator=P&V Old Footprint=CONN_MATE-N-LOCK_VERT_2x3M New Footprint=CONN_MATE-N-LOCK_VERT_2x3M
Change Physical Footprint: Designator=PROG Old Footprint=CONN_HEADER_M_1x6 New Footprint=CONN_HEADER_M_1x6
Change Physical Footprint: Designator=PWR Old Footprint=CONN_MATE-N-LOCK_VERT_2x2M New Footprint=CONN_MATE-N-LOCK_VERT_2x2M
Change Physical Footprint: Designator=Q1 Old Footprint=SOT-23 New Footprint=SOT-23
Change Physical Footprint: Designator=Q2 Old Footprint=SOT-23 New Footprint=SOT-23
Change Physical Footprint: Designator=Q3 Old Footprint=SOT-23 New Footprint=SOT-23
Change Physical Footprint: Designator=Q4 Old Footprint=SOT-23 New Footprint=SOT-23
Change Physical Footprint: Designator=Q5 Old Footprint=SOT-23 New Footprint=SOT-23
Change Physical Footprint: Designator=Q6 Old Footprint=SOT-23 New Footprint=SOT-23
Change Physical Footprint: Designator=Q7 Old Footprint=SOT-23 New Footprint=SOT-23
Change Physical Footprint: Designator=Q8 Old Footprint=SOT-23 New Footprint=SOT-23
Change Physical Footprint: Designator=Q9 Old Footprint=SOT-23 New Footprint=SOT-23
Change Physical Footprint: Designator=Q10 Old Footprint=SOT-23 New Footprint=SOT-23
Change Physical Footprint: Designator=R1 Old Footprint=RES_0603 New Footprint=RES_0603
Change Physical Footprint: Designator=R2 Old Footprint=RES_0603 New Footprint=RES_0603
Change Physical Footprint: Designator=R3 Old Footprint=RES_0805 New Footprint=RES_0805
Change Physical Footprint: Designator=R4 Old Footprint=RES_0805 New Footprint=RES_0805
Change Physical Footprint: Designator=R5 Old Footprint=RES_0603 New Footprint=RES_0603
Change Physical Footprint: Designator=R6 Old Footprint=RES_0603 New Footprint=RES_0603
Change Physical Footprint: Designator=R7 Old Footprint=RES_0603 New Footprint=RES_0603
Change Physical Footprint: Designator=R8 Old Footprint=RES_0603 New Footprint=RES_0603
Change Physical Footprint: Designator=R9 Old Footprint=RES_0603 New Footprint=RES_0603
Change Physical Footprint: Designator=R10 Old Footprint=RES_0603 New Footprint=RES_0603
Change Physical Footprint: Designator=R11 Old Footprint=RES_0805 New Footprint=RES_0805
Change Physical Footprint: Designator=R12 Old Footprint=RES_0603 New Footprint=RES_0603
Change Physical Footprint: Designator=R13 Old Footprint=RES_0603 New Footprint=RES_0603
Change Physical Footprint: Designator=R14 Old Footprint=RES_0603 New Footprint=RES_0603
Change Physical Footprint: Designator=R15 Old Footprint=RES_0603 New Footprint=RES_0603
Change Physical Footprint: Designator=R16 Old Footprint=RES_0603 New Footprint=RES_0603
Change Physical Footprint: Designator=R17 Old Footprint=RES_0603 New Footprint=RES_0603
Change Physical Footprint: Designator=R18 Old Footprint=RES_0603 New Footprint=RES_0603
Change Physical Footprint: Designator=R19 Old Footprint=RES_0805 New Footprint=RES_0805
Change Physical Footprint: Designator=R20 Old Footprint=RES_0603 New Footprint=RES_0603
Change Physical Footprint: Designator=R21 Old Footprint=RES_0805 New Footprint=RES_0805
Change Physical Footprint: Designator=R22 Old Footprint=RES_0603 New Footprint=RES_0603
Change Physical Footprint: Designator=R23 Old Footprint=RES_0805 New Footprint=RES_0805
Change Physical Footprint: Designator=R24 Old Footprint=RES_0805 New Footprint=RES_0805
Change Physical Footprint: Designator=R25 Old Footprint=RES_0603 New Footprint=RES_0603
Change Physical Footprint: Designator=R26 Old Footprint=RES_1206 New Footprint=RES_1206
Change Physical Footprint: Designator=R27 Old Footprint=RES_1206 New Footprint=RES_1206
Change Physical Footprint: Designator=R28 Old Footprint=RES_0805 New Footprint=RES_0805
Change Physical Footprint: Designator=R29 Old Footprint=RES_0603 New Footprint=RES_0603
Change Physical Footprint: Designator=R30 Old Footprint=RES_0603 New Footprint=RES_0603
Change Physical Footprint: Designator=R31 Old Footprint=RES_0603 New Footprint=RES_0603
Change Physical Footprint: Designator=R32 Old Footprint=RES_0603 New Footprint=RES_0603
Change Physical Footprint: Designator=R33 Old Footprint=RES_0603 New Footprint=RES_0603
Change Physical Footprint: Designator=R34 Old Footprint=RES_0603 New Footprint=RES_0603
Change Physical Footprint: Designator=R35 Old Footprint=RES_0603 New Footprint=RES_0603
Change Physical Footprint: Designator=R36 Old Footprint=RES_0603 New Footprint=RES_0603
Change Physical Footprint: Designator=R37 Old Footprint=RES_0603 New Footprint=RES_0603
Change Physical Footprint: Designator=R38 Old Footprint=RES_0603 New Footprint=RES_0603
Change Physical Footprint: Designator=R39 Old Footprint=RES_0603 New Footprint=RES_0603
Change Physical Footprint: Designator=R40 Old Footprint=RES_0603 New Footprint=RES_0603
Change Physical Footprint: Designator=R41 Old Footprint=RES_0603 New Footprint=RES_0603
Change Physical Footprint: Designator=R42 Old Footprint=RES_0603 New Footprint=RES_0603
Change Physical Footprint: Designator=R43 Old Footprint=RES_0603 New Footprint=RES_0603
Change Physical Footprint: Designator=R44 Old Footprint=RES_0603 New Footprint=RES_0603
Change Physical Footprint: Designator=R45 Old Footprint=RES_0603 New Footprint=RES_0603
Change Physical Footprint: Designator=R51 Old Footprint=RES_0603 New Footprint=RES_0603
Change Physical Footprint: Designator=R53 Old Footprint=RES_0603 New Footprint=RES_0603
Change Physical Footprint: Designator=R79 Old Footprint=RES_0805 New Footprint=RES_0805
Change Physical Footprint: Designator=R86 Old Footprint=RES_0603 New Footprint=RES_0603
Change Physical Footprint: Designator=R88 Old Footprint=RES_0603 New Footprint=RES_0603
Change Physical Footprint: Designator=R95 Old Footprint=RES_0603 New Footprint=RES_0603
Change Physical Footprint: Designator=R96 Old Footprint=RES_0603 New Footprint=RES_0603
Change Physical Footprint: Designator=R97 Old Footprint=RES_0603 New Footprint=RES_0603
Change Physical Footprint: Designator=R101 Old Footprint=RES_0603 New Footprint=RES_0603
Change Physical Footprint: Designator=R103 Old Footprint=RES_0603 New Footprint=RES_0603
Change Physical Footprint: Designator=R113 Old Footprint=RES_0603 New Footprint=RES_0603
Change Physical Footprint: Designator=R114 Old Footprint=RES_0603 New Footprint=RES_0603
Change Physical Footprint: Designator=TP_1 Old Footprint=Testpoint_SMD New Footprint=Testpoint_SMD
Change Physical Footprint: Designator=TP_2 Old Footprint=Testpoint_SMD New Footprint=Testpoint_SMD
Change Physical Footprint: Designator=TP_3V3_PRT Old Footprint=Testpoint_SMD New Footprint=Testpoint_SMD
Change Physical Footprint: Designator=TP_5V_PRT Old Footprint=Testpoint_SMD New Footprint=Testpoint_SMD
Change Physical Footprint: Designator=TP_12V_PRT Old Footprint=Testpoint_SMD New Footprint=Testpoint_SMD
Change Physical Footprint: Designator=TVS1 Old Footprint=DO214AA New Footprint=DO214AA
Change Physical Footprint: Designator=TVS2 Old Footprint=DO214AA New Footprint=DO214AA
Change Physical Footprint: Designator=TVS3 Old Footprint=DO214AA New Footprint=DO214AA
Change Physical Footprint: Designator=TVS4 Old Footprint=DO214AA New Footprint=DO214AA
Change Physical Footprint: Designator=TVS5 Old Footprint=DO214AA New Footprint=DO214AA
Change Physical Footprint: Designator=X1 Old Footprint=CONN_HEADER_M_1x3 New Footprint=CONN_HEADER_M_1x3
Change Physical Footprint: Designator=X2 Old Footprint=USB-C_Receptacle New Footprint=USB-C_Receptacle
