Removed Pin From Net: NetName=NetFT1_14 Pin=LED1-2
Removed Pin From Net: NetName=NetFT1_7 Pin=LED2-2
Change Component Designator: OldDesignator= NewDesignator=DH1
Change Component Designator: OldDesignator= NewDesignator=DH3
Change Component Designator: OldDesignator= NewDesignator=DH4
Change component parameters: Designator = "LED1" ("LED1"); Footprint = "3.2X1.6X1.1"; UniqueID = "\BLUBKPUX\ALRMCYQC" ("\BLUBKPUX\ALRMCYQC")
Change component parameters (AddParameter): Name = "Brightness"; Value = "50mcd"; VariantName = "[No Variations]"
Change component parameters (AddParameter): Name = "Color"; Value = "Green"; VariantName = "[No Variations]"
Change component parameters (AddParameter): Name = "Current"; Value = "20mA"; VariantName = "[No Variations]"
Change component parameters (AddParameter): Name = "Forward Voltage"; Value = "2.2V"; VariantName = "[No Variations]"
Change component parameters (AddParameter): Name = "Manufacturer"; Value = "Lumex Opto/Components Inc."; VariantName = "[No Variations]"
Change component parameters (AddParameter): Name = "Manufacturer Part Number"; Value = "SML-LXFM0603SUGCTR"; VariantName = "[No Variations]"
Change component parameters (AddParameter): Name = "Package"; Value = "0603"; VariantName = "[No Variations]"
Change component parameters (AddParameter): Name = "Supplier"; Value = "Digi-Key"; VariantName = "[No Variations]"
Change component parameters (AddParameter): Name = "Supplier Part Number"; Value = "67-2320-1-ND"; VariantName = "[No Variations]"
Change component parameters: Designator = "LED2" ("LED2"); Footprint = "3.2X1.6X1.1"; UniqueID = "\BLUBKPUX\KOXANXTS" ("\BLUBKPUX\KOXANXTS")
Change component parameters (AddParameter): Name = "Brightness"; Value = "50mcd"; VariantName = "[No Variations]"
Change component parameters (AddParameter): Name = "Color"; Value = "Green"; VariantName = "[No Variations]"
Change component parameters (AddParameter): Name = "Current"; Value = "20mA"; VariantName = "[No Variations]"
Change component parameters (AddParameter): Name = "Forward Voltage"; Value = "2.2V"; VariantName = "[No Variations]"
Change component parameters (AddParameter): Name = "Manufacturer"; Value = "Lumex Opto/Components Inc."; VariantName = "[No Variations]"
Change component parameters (AddParameter): Name = "Manufacturer Part Number"; Value = "SML-LXFM0603SUGCTR"; VariantName = "[No Variations]"
Change component parameters (AddParameter): Name = "Package"; Value = "0603"; VariantName = "[No Variations]"
Change component parameters (AddParameter): Name = "Supplier"; Value = "Digi-Key"; VariantName = "[No Variations]"
Change component parameters (AddParameter): Name = "Supplier Part Number"; Value = "67-2320-1-ND"; VariantName = "[No Variations]"
Added Pin To Net: NetName=NetLED1_A Pin=R22-1
Added Net: Name=NetLED1_A
