Change Physical Footprint: Designator=ADCL Old Footprint=CONN_MATE-N-LOCK_VERT_2x2M New Footprint=CONN_MATE-N-LOCK_VERT_2x2M
Change Physical Footprint: Designator=ADCR Old Footprint=CONN_MATE-N-LOCK_VERT_2x2M New Footprint=CONN_MATE-N-LOCK_VERT_2x2M
Change Physical Footprint: Designator=BRAKE Old Footprint=CONN_MATE-N-LOCK_VERT_2x2M New Footprint=CONN_MATE-N-LOCK_VERT_2x2M
Change Physical Footprint: Designator=CAN INV Old Footprint=CONN_MATE-N-LOCK_VERT_2x2M New Footprint=CONN_MATE-N-LOCK_VERT_2x2M
Change Physical Footprint: Designator=CAN VEHICLE Old Footprint=CONN_MATE-N-LOCK_VERT_2x2M New Footprint=CONN_MATE-N-LOCK_VERT_2x2M
Change Physical Footprint: Designator=DIAG Old Footprint=CONN_MATE-N-LOCK_VERT_1x2M New Footprint=CONN_MATE-N-LOCK_VERT_1x2M
Change Physical Footprint: Designator=P&V Old Footprint=CONN_MATE-N-LOCK_VERT_2x3M New Footprint=CONN_MATE-N-LOCK_VERT_2x3M
Change Physical Footprint: Designator=PWR Old Footprint=CONN_MATE-N-LOCK_VERT_2x2M New Footprint=CONN_MATE-N-LOCK_VERT_2x2M
