Removed Pin From Net: NetName=gr_led Pin=Q2-1
Removed Pin From Net: NetName=red_led Pin=Q3-1
Removed Pin From Net: NetName=or_led Pin=Q4-1
Removed Pin From Net: NetName=NetLED3_A Pin=R1-1
Removed Pin From Net: NetName=5V Pin=R1-2
Removed Pin From Net: NetName=NetLED4_A Pin=R113-1
Removed Pin From Net: NetName=5V Pin=R113-2
Removed Pin From Net: NetName=NetLED5_A Pin=R114-1
Removed Pin From Net: NetName=5V Pin=R114-2
Removed Member From Class: ClassName=Designator Member=R114
Change Component Comment : Designator=R1 Old Comment=180R New Comment=47R
Change component parameters: Designator = "R1" ("R1"); Footprint = "RES_0603"; UniqueID = "\JIXQAVOO\DSMOZIKB" ("\JIXQAVOO\DSMOZIKB")
Change component parameters (AddParameter): Name = "Manufacturer"; Value = "Kelco"; VariantName = "[No Variations]"
Change component parameters (AddParameter): Name = "Manufacturer Part Number"; Value = "13299"; VariantName = "[No Variations]"
Change component parameters (AddParameter): Name = "Package"; Value = "0603"; VariantName = "[No Variations]"
Change component parameters (AddParameter): Name = "Power"; Value = "0.1W"; VariantName = "[No Variations]"
Change component parameters (AddParameter): Name = "Power Derange"; Value = "/"; VariantName = "[No Variations]"
Change component parameters (AddParameter): Name = "Resistance"; Value = "47R"; VariantName = "[No Variations]"
Change component parameters (AddParameter): Name = "Supplier"; Value = "Kelco"; VariantName = "[No Variations]"
Change component parameters (AddParameter): Name = "Supplier Part Number"; Value = "13299"; VariantName = "[No Variations]"
Change component parameters (AddParameter): Name = "Temperature Range"; Value = "/"; VariantName = "[No Variations]"
Change component parameters (AddParameter): Name = "Tolerance"; Value = "1%"; VariantName = "[No Variations]"
Added Component: Designator=R49(RES_0603)
Add component (AddParameter): Name = "Manufacturer"; Value = "Kelco"; VariantName = "[No Variations]"
Add component (AddParameter): Name = "Manufacturer Part Number"; Value = "13299"; VariantName = "[No Variations]"
Add component (AddParameter): Name = "Package"; Value = "0603"; VariantName = "[No Variations]"
Add component (AddParameter): Name = "Power"; Value = "0.1W"; VariantName = "[No Variations]"
Add component (AddParameter): Name = "Power Derange"; Value = "/"; VariantName = "[No Variations]"
Add component (AddParameter): Name = "Resistance"; Value = "47R"; VariantName = "[No Variations]"
Add component (AddParameter): Name = "Supplier"; Value = "Kelco"; VariantName = "[No Variations]"
Add component (AddParameter): Name = "Supplier Part Number"; Value = "13299"; VariantName = "[No Variations]"
Add component (AddParameter): Name = "Temperature Range"; Value = "/"; VariantName = "[No Variations]"
Add component (AddParameter): Name = "Tolerance"; Value = "1%"; VariantName = "[No Variations]"
Added Component: Designator=R50(RES_0603)
Add component (AddParameter): Name = "Manufacturer"; Value = "Kelco"; VariantName = "[No Variations]"
Add component (AddParameter): Name = "Manufacturer Part Number"; Value = "13299"; VariantName = "[No Variations]"
Add component (AddParameter): Name = "Package"; Value = "0603"; VariantName = "[No Variations]"
Add component (AddParameter): Name = "Power"; Value = "0.1W"; VariantName = "[No Variations]"
Add component (AddParameter): Name = "Power Derange"; Value = "/"; VariantName = "[No Variations]"
Add component (AddParameter): Name = "Resistance"; Value = "47R"; VariantName = "[No Variations]"
Add component (AddParameter): Name = "Supplier"; Value = "Kelco"; VariantName = "[No Variations]"
Add component (AddParameter): Name = "Supplier Part Number"; Value = "13299"; VariantName = "[No Variations]"
Add component (AddParameter): Name = "Temperature Range"; Value = "/"; VariantName = "[No Variations]"
Add component (AddParameter): Name = "Tolerance"; Value = "1%"; VariantName = "[No Variations]"
Added Component: Designator=R55(RES_0603)
Add component (AddParameter): Name = "Manufacturer"; Value = "KOA Speer"; VariantName = "[No Variations]"
Add component (AddParameter): Name = "Manufacturer Part Number"; Value = "RN73H1JTTD4171F100"; VariantName = "[No Variations]"
Add component (AddParameter): Name = "Package"; Value = "0603"; VariantName = "[No Variations]"
Add component (AddParameter): Name = "Power"; Value = "100mW"; VariantName = "[No Variations]"
Add component (AddParameter): Name = "Power derating"; Value = "/"; VariantName = "[No Variations]"
Add component (AddParameter): Name = "Resistance"; Value = "4.17K"; VariantName = "[No Variations]"
Add component (AddParameter): Name = "Supplier"; Value = "Mouser"; VariantName = "[No Variations]"
Add component (AddParameter): Name = "Supplier Part Number"; Value = "660-RN73H1JT4171F100"; VariantName = "[No Variations]"
Add component (AddParameter): Name = "Temperature range"; Value = "-55C +55 C"; VariantName = "[No Variations]"
Add component (AddParameter): Name = "Tolerance"; Value = "1%"; VariantName = "[No Variations]"
Added Component: Designator=R56(RES_0603)
Add component (AddParameter): Name = "Manufacturer"; Value = "KOA Speer"; VariantName = "[No Variations]"
Add component (AddParameter): Name = "Manufacturer Part Number"; Value = "RN73H1JTTD4171F100"; VariantName = "[No Variations]"
Add component (AddParameter): Name = "Package"; Value = "0603"; VariantName = "[No Variations]"
Add component (AddParameter): Name = "Power"; Value = "100mW"; VariantName = "[No Variations]"
Add component (AddParameter): Name = "Power derating"; Value = "/"; VariantName = "[No Variations]"
Add component (AddParameter): Name = "Resistance"; Value = "4.17K"; VariantName = "[No Variations]"
Add component (AddParameter): Name = "Supplier"; Value = "Mouser"; VariantName = "[No Variations]"
Add component (AddParameter): Name = "Supplier Part Number"; Value = "660-RN73H1JT4171F100"; VariantName = "[No Variations]"
Add component (AddParameter): Name = "Temperature range"; Value = "-55C +55 C"; VariantName = "[No Variations]"
Add component (AddParameter): Name = "Tolerance"; Value = "1%"; VariantName = "[No Variations]"
Added Component: Designator=R57(RES_0603)
Add component (AddParameter): Name = "Manufacturer"; Value = "KOA Speer"; VariantName = "[No Variations]"
Add component (AddParameter): Name = "Manufacturer Part Number"; Value = "RN73H1JTTD4171F100"; VariantName = "[No Variations]"
Add component (AddParameter): Name = "Package"; Value = "0603"; VariantName = "[No Variations]"
Add component (AddParameter): Name = "Power"; Value = "100mW"; VariantName = "[No Variations]"
Add component (AddParameter): Name = "Power derating"; Value = "/"; VariantName = "[No Variations]"
Add component (AddParameter): Name = "Resistance"; Value = "4.17K"; VariantName = "[No Variations]"
Add component (AddParameter): Name = "Supplier"; Value = "Mouser"; VariantName = "[No Variations]"
Add component (AddParameter): Name = "Supplier Part Number"; Value = "660-RN73H1JT4171F100"; VariantName = "[No Variations]"
Add component (AddParameter): Name = "Temperature range"; Value = "-55C +55 C"; VariantName = "[No Variations]"
Add component (AddParameter): Name = "Tolerance"; Value = "1%"; VariantName = "[No Variations]"
Added Component: Designator=R58(RES_0603)
Add component (AddParameter): Name = "Manufacturer"; Value = "Kelco"; VariantName = "[No Variations]"
Add component (AddParameter): Name = "Manufacturer Part Nuber"; Value = "11706"; VariantName = "[No Variations]"
Add component (AddParameter): Name = "Package"; Value = "0603"; VariantName = "[No Variations]"
Add component (AddParameter): Name = "Power"; Value = "0.1W"; VariantName = "[No Variations]"
Add component (AddParameter): Name = "Power Derange"; Value = "/"; VariantName = "[No Variations]"
Add component (AddParameter): Name = "Resistance"; Value = "3K3"; VariantName = "[No Variations]"
Add component (AddParameter): Name = "Supplier"; Value = "Kelco"; VariantName = "[No Variations]"
Add component (AddParameter): Name = "Supplier Part Number"; Value = "11706"; VariantName = "[No Variations]"
Add component (AddParameter): Name = "Temperature Range"; Value = "/"; VariantName = "[No Variations]"
Add component (AddParameter): Name = "Tolerance"; Value = "1%"; VariantName = "[No Variations]"
Added Component: Designator=R59(RES_0603)
Add component (AddParameter): Name = "Manufacturer"; Value = "Kelco"; VariantName = "[No Variations]"
Add component (AddParameter): Name = "Manufacturer Part Nuber"; Value = "11706"; VariantName = "[No Variations]"
Add component (AddParameter): Name = "Package"; Value = "0603"; VariantName = "[No Variations]"
Add component (AddParameter): Name = "Power"; Value = "0.1W"; VariantName = "[No Variations]"
Add component (AddParameter): Name = "Power Derange"; Value = "/"; VariantName = "[No Variations]"
Add component (AddParameter): Name = "Resistance"; Value = "3K3"; VariantName = "[No Variations]"
Add component (AddParameter): Name = "Supplier"; Value = "Kelco"; VariantName = "[No Variations]"
Add component (AddParameter): Name = "Supplier Part Number"; Value = "11706"; VariantName = "[No Variations]"
Add component (AddParameter): Name = "Temperature Range"; Value = "/"; VariantName = "[No Variations]"
Add component (AddParameter): Name = "Tolerance"; Value = "1%"; VariantName = "[No Variations]"
Added Component: Designator=R60(RES_0603)
Add component (AddParameter): Name = "Manufacturer"; Value = "Kelco"; VariantName = "[No Variations]"
Add component (AddParameter): Name = "Manufacturer Part Nuber"; Value = "11706"; VariantName = "[No Variations]"
Add component (AddParameter): Name = "Package"; Value = "0603"; VariantName = "[No Variations]"
Add component (AddParameter): Name = "Power"; Value = "0.1W"; VariantName = "[No Variations]"
Add component (AddParameter): Name = "Power Derange"; Value = "/"; VariantName = "[No Variations]"
Add component (AddParameter): Name = "Resistance"; Value = "3K3"; VariantName = "[No Variations]"
Add component (AddParameter): Name = "Supplier"; Value = "Kelco"; VariantName = "[No Variations]"
Add component (AddParameter): Name = "Supplier Part Number"; Value = "11706"; VariantName = "[No Variations]"
Add component (AddParameter): Name = "Temperature Range"; Value = "/"; VariantName = "[No Variations]"
Add component (AddParameter): Name = "Tolerance"; Value = "1%"; VariantName = "[No Variations]"
Added Pin To Net: NetName=NetLED4_A Pin=R1-1
Added Pin To Net: NetName=3V3 Pin=R1-2
Added Pin To Net: NetName=NetLED3_A Pin=R49-1
Added Pin To Net: NetName=3V3 Pin=R49-2
Added Pin To Net: NetName=NetLED5_A Pin=R50-1
Added Pin To Net: NetName=3V3 Pin=R50-2
Added Pin To Net: NetName=or_led Pin=R55-2
Added Pin To Net: NetName=gr_led Pin=R56-2
Added Pin To Net: NetName=red_led Pin=R57-2
Added Pin To Net: NetName=GND Pin=R58-1
Added Pin To Net: NetName=GND Pin=R59-1
Added Pin To Net: NetName=GND Pin=R60-1
Added Pin To Net: NetName=NetQ2_1 Pin=Q2-1
Added Pin To Net: NetName=NetQ2_1 Pin=R56-1
Added Pin To Net: NetName=NetQ2_1 Pin=R59-2
Added Net: Name=NetQ2_1
Added Pin To Net: NetName=NetQ3_1 Pin=Q3-1
Added Pin To Net: NetName=NetQ3_1 Pin=R57-1
Added Pin To Net: NetName=NetQ3_1 Pin=R60-2
Added Net: Name=NetQ3_1
Added Pin To Net: NetName=NetQ4_1 Pin=Q4-1
Added Pin To Net: NetName=NetQ4_1 Pin=R55-1
Added Pin To Net: NetName=NetQ4_1 Pin=R58-2
Added Net: Name=NetQ4_1
