Change Component Designator: Old Designator=R? New Designator=R87
Change Component Designator: Old Designator=TP_? New Designator=TP_1
Change Component Designator: Old Designator=TP_? New Designator=TP_2
